testfiles/WAVE5.CSV

Channel			  :,CH1
Frequency			  :,F=39.45Hz
Period 			  :,T=25.35ms
PK-PK				  :,Vpp=984.0mV
Average			  :,V=7.680mV
Vertical pos		  :,0.00mV
Probe attenuation	  :,1X
Voltage per ADC value:,8.00mV
Time interval		  :,20.00uS

index,CH1_Voltage(mV)
0,-40.00
1,-40.00
2,-56.00
3,-72.00
4,-88.00
5,-112.00
6,-136.00
7,-144.00
8,-160.00
9,-184.00
10,-192.00
11,-200.00
12,-216.00
13,-216.00
14,-216.00
15,-216.00
16,-200.00
17,-184.00
18,-184.00
19,-160.00
20,-144.00
21,-136.00
22,-104.00
23,-80.00
24,-72.00
25,-56.00
26,-40.00
27,-32.00
28,-24.00
29,-40.00
30,-40.00
31,-40.00
32,-56.00
33,-72.00
34,-88.00
35,-112.00
36,-128.00
37,-144.00
38,-160.00
39,-184.00
40,-184.00
41,-200.00
42,-200.00
43,-192.00
44,-200.00
45,-192.00
46,-184.00
47,-184.00
48,-160.00
49,-144.00
50,-128.00
51,-112.00
52,-96.00
53,-72.00
54,-56.00
55,-40.00
56,-24.00
57,-40.00
58,-24.00
59,-24.00
60,-32.00
61,-40.00
62,-56.00
63,-80.00
64,-96.00
65,-112.00
66,-128.00
67,-144.00
68,-160.00
69,-176.00
70,-184.00
71,-184.00
72,-184.00
73,-192.00
74,-192.00
75,-184.00
76,-176.00
77,-160.00
78,-144.00
79,-128.00
80,-112.00
81,-96.00
82,-80.00
83,-64.00
84,-48.00
85,-32.00
86,-32.00
87,-24.00
88,-24.00
89,-24.00
90,-32.00
91,-56.00
92,-64.00
93,-80.00
94,-104.00
95,-112.00
96,-128.00
97,-144.00
98,-160.00
99,-176.00
100,-184.00
101,-184.00
102,-184.00
103,-184.00
104,-184.00
105,-176.00
106,-160.00
107,-152.00
108,-136.00
109,-120.00
110,-104.00
111,-88.00
112,-64.00
113,-56.00
114,-32.00
115,-32.00
116,-24.00
117,-16.00
118,-24.00
119,-24.00
120,-40.00
121,-56.00
122,-64.00
123,-80.00
124,-104.00
125,-112.00
126,-128.00
127,-144.00
128,-152.00
129,-168.00
130,-176.00
131,-176.00
132,-176.00
133,-176.00
134,-176.00
135,-160.00
136,-152.00
137,-136.00
138,-128.00
139,-104.00
140,-88.00
141,-72.00
142,-56.00
143,-48.00
144,-24.00
145,-24.00
146,-16.00
147,-16.00
148,-24.00
149,-40.00
150,-32.00
151,-56.00
152,-64.00
153,-88.00
154,-104.00
155,-112.00
156,-128.00
157,-144.00
158,-152.00
159,-160.00
160,-176.00
161,-176.00
162,-176.00
163,488.00
164,472.00
165,456.00
166,408.00
167,360.00
168,328.00
169,280.00
170,240.00
171,200.00
172,168.00
173,136.00
174,104.00
175,96.00
176,96.00
177,96.00
178,112.00
179,128.00
180,160.00
181,192.00
182,232.00
183,272.00
184,312.00
185,352.00
186,392.00
187,432.00
188,456.00
189,456.00
190,480.00
191,480.00
192,472.00
193,464.00
194,448.00
195,416.00
196,368.00
197,336.00
198,288.00
199,256.00
200,216.00
201,176.00
202,144.00
203,120.00
204,96.00
205,96.00
206,88.00
207,96.00
208,112.00
209,128.00
210,168.00
211,200.00
212,240.00
213,280.00
214,320.00
215,360.00
216,392.00
217,416.00
218,424.00
219,456.00
220,464.00
221,456.00
222,456.00
223,440.00
224,408.00
225,368.00
226,344.00
227,304.00
228,272.00
229,224.00
230,192.00
231,152.00
232,120.00
233,104.00
234,96.00
235,88.00
236,88.00
237,104.00
238,104.00
239,144.00
240,168.00
241,208.00
242,240.00
243,280.00
244,320.00
245,352.00
246,392.00
247,400.00
248,432.00
249,432.00
250,440.00
251,440.00
252,424.00
253,408.00
254,376.00
255,344.00
256,312.00
257,272.00
258,240.00
259,200.00
260,168.00
261,136.00
262,104.00
263,96.00
264,88.00
265,88.00
266,88.00
267,96.00
268,120.00
269,152.00
270,176.00
271,216.00
272,248.00
273,288.00
274,312.00
275,352.00
276,384.00
277,400.00
278,416.00
279,416.00
280,416.00
281,416.00
282,392.00
283,376.00
284,344.00
285,320.00
286,280.00
287,240.00
288,216.00
289,176.00
290,152.00
291,120.00
292,96.00
293,80.00
294,88.00
295,88.00
296,88.00
297,104.00
298,120.00
299,160.00
300,176.00
301,216.00
302,256.00
303,280.00
304,320.00
305,344.00
306,360.00
307,384.00
308,400.00
309,400.00
310,400.00
311,384.00
312,360.00
313,344.00
314,312.00
315,280.00
316,256.00
317,224.00
318,184.00
319,152.00
320,128.00
321,96.00
322,96.00
323,88.00
324,88.00
325,88.00
326,96.00
327,112.00
328,136.00
329,168.00
330,192.00
331,224.00
332,256.00
333,280.00
334,320.00
335,344.00
336,360.00
337,376.00
338,376.00
339,384.00
340,376.00
341,360.00
342,344.00
343,320.00
344,280.00
345,256.00
346,224.00
347,192.00
348,168.00
349,144.00
350,96.00
351,88.00
352,88.00
353,80.00
354,80.00
355,88.00
356,88.00
357,96.00
358,136.00
359,168.00
360,192.00
361,232.00
362,264.00
363,288.00
364,312.00
365,336.00
366,344.00
367,360.00
368,360.00
369,360.00
370,352.00
371,336.00
372,320.00
373,280.00
374,264.00
375,232.00
376,192.00
377,176.00
378,136.00
379,112.00
380,96.00
381,88.00
382,72.00
383,64.00
384,80.00
385,88.00
386,88.00
387,104.00
388,136.00
389,176.00
390,192.00
391,216.00
392,256.00
393,280.00
394,296.00
395,328.00
396,336.00
397,344.00
398,344.00
399,336.00
400,336.00
401,312.00
402,296.00
403,272.00
404,240.00
405,208.00
406,184.00
407,152.00
408,120.00
409,104.00
410,88.00
411,80.00
412,72.00
413,64.00
414,80.00
415,88.00
416,104.00
417,120.00
418,152.00
419,176.00
420,208.00
421,224.00
422,256.00
423,280.00
424,296.00
425,312.00
426,328.00
427,328.00
428,320.00
429,320.00
430,312.00
431,280.00
432,272.00
433,240.00
434,216.00
435,176.00
436,160.00
437,136.00
438,96.00
439,80.00
440,80.00
441,72.00
442,64.00
443,64.00
444,80.00
445,88.00
446,104.00
447,120.00
448,152.00
449,176.00
450,208.00
451,224.00
452,256.00
453,280.00
454,288.00
455,304.00
456,312.00
457,320.00
458,312.00
459,296.00
460,280.00
461,272.00
462,240.00
463,216.00
464,184.00
465,168.00
466,144.00
467,112.00
468,88.00
469,80.00
470,72.00
471,64.00
472,64.00
473,64.00
474,80.00
475,88.00
476,104.00
477,136.00
478,152.00
479,176.00
480,208.00
481,232.00
482,248.00
483,272.00
484,288.00
485,296.00
486,296.00
487,296.00
488,288.00
489,280.00
490,272.00
491,240.00
492,224.00
493,192.00
494,160.00
495,152.00
496,120.00
497,104.00
498,88.00
499,72.00
500,64.00
501,56.00
502,56.00
503,64.00
504,80.00
505,88.00
506,104.00
507,144.00
508,160.00
509,176.00
510,208.00
511,224.00
512,256.00
513,272.00
514,272.00
515,280.00
516,288.00
517,280.00
518,272.00
519,256.00
520,240.00
521,224.00
522,192.00
523,176.00
524,152.00
525,120.00
526,104.00
527,88.00
528,72.00
529,72.00
530,64.00
531,56.00
532,64.00
533,64.00
534,88.00
535,96.00
536,104.00
537,128.00
538,168.00
539,184.00
540,208.00
541,232.00
542,240.00
543,248.00
544,272.00
545,272.00
546,272.00
547,272.00
548,248.00
549,240.00
550,224.00
551,192.00
552,176.00
553,160.00
554,136.00
555,112.00
556,88.00
557,88.00
558,64.00
559,64.00
560,48.00
561,56.00
562,56.00
563,64.00
564,80.00
565,104.00
566,120.00
567,136.00
568,168.00
569,192.00
570,200.00
571,224.00
572,240.00
573,256.00
574,240.00
575,248.00
576,256.00
577,256.00
578,240.00
579,224.00
580,200.00
581,176.00
582,160.00
583,136.00
584,112.00
585,96.00
586,80.00
587,64.00
588,56.00
589,40.00
590,56.00
591,56.00
592,64.00
593,72.00
594,88.00
595,104.00
596,128.00
597,144.00
598,168.00
599,184.00
600,240.00
601,240.00
602,256.00
603,240.00
604,240.00
605,224.00
606,216.00
607,200.00
608,176.00
609,168.00
610,144.00
611,120.00
612,96.00
613,88.00
614,64.00
615,48.00
616,56.00
617,48.00
618,56.00
619,56.00
620,56.00
621,80.00
622,80.00
623,104.00
624,128.00
625,152.00
626,168.00
627,184.00
628,200.00
629,216.00
630,224.00
631,216.00
632,232.00
633,232.00
634,224.00
635,216.00
636,208.00
637,192.00
638,168.00
639,152.00
640,128.00
641,104.00
642,80.00
643,80.00
644,64.00
645,56.00
646,48.00
647,48.00
648,48.00
649,48.00
650,64.00
651,80.00
652,88.00
653,104.00
654,120.00
655,152.00
656,168.00
657,176.00
658,200.00
659,208.00
660,224.00
661,224.00
662,224.00
663,216.00
664,216.00
665,200.00
666,192.00
667,176.00
668,152.00
669,136.00
670,96.00
671,88.00
672,80.00
673,64.00
674,48.00
675,48.00
676,48.00
677,48.00
678,48.00
679,48.00
680,64.00
681,80.00
682,96.00
683,104.00
684,120.00
685,152.00
686,168.00
687,176.00
688,192.00
689,208.00
690,216.00
691,216.00
692,208.00
693,208.00
694,200.00
695,184.00
696,168.00
697,160.00
698,144.00
699,120.00
700,104.00
701,88.00
702,72.00
703,48.00
704,48.00
705,48.00
706,40.00
707,48.00
708,48.00
709,48.00
710,72.00
711,88.00
712,96.00
713,112.00
714,136.00
715,152.00
716,160.00
717,176.00
718,192.00
719,200.00
720,200.00
721,200.00
722,200.00
723,192.00
724,176.00
725,168.00
726,168.00
727,128.00
728,120.00
729,104.00
730,88.00
731,80.00
732,64.00
733,56.00
734,40.00
735,40.00
736,40.00
737,32.00
738,48.00
739,64.00
740,72.00
741,88.00
742,104.00
743,112.00
744,136.00
745,152.00
746,168.00
747,176.00
748,184.00
749,192.00
750,184.00
751,192.00
752,192.00
753,184.00
754,168.00
755,160.00
756,144.00
757,120.00
758,96.00
759,96.00
760,80.00
761,64.00
762,40.00
763,40.00
764,40.00
765,32.00
766,40.00
767,40.00
768,40.00
769,56.00
770,72.00
771,88.00
772,104.00
773,120.00
774,136.00
775,152.00
776,168.00
777,176.00
778,176.00
779,176.00
780,184.00
781,184.00
782,176.00
783,160.00
784,160.00
785,144.00
786,128.00
787,96.00
788,-272.00
789,-224.00
790,-184.00
791,-152.00
792,-120.00
793,-112.00
794,-96.00
795,-96.00
796,-96.00
797,-120.00
798,-144.00
799,-184.00
800,-216.00
801,-256.00
802,-288.00
803,-328.00
804,-368.00
805,-408.00
806,-432.00
807,-464.00
808,-472.00
809,-480.00
810,-472.00
811,-464.00
812,-456.00
813,-432.00
814,-392.00
815,-368.00
816,-320.00
817,-280.00
818,-248.00
819,-192.00
820,-168.00
821,-136.00
822,-112.00
823,-96.00
824,-96.00
825,-96.00
826,-104.00
827,-128.00
828,-152.00
829,-184.00
830,-216.00
831,-256.00
832,-288.00
833,-344.00
834,-368.00
835,-400.00
836,-432.00
837,-448.00
838,-464.00
839,-464.00
840,-456.00
841,-440.00
842,-424.00
843,-392.00
844,-368.00
845,-320.00
846,-288.00
847,-256.00
848,-216.00
849,-176.00
850,-144.00
851,-120.00
852,-104.00
853,-88.00
854,-88.00
855,-88.00
856,-112.00
857,-128.00
858,-160.00
859,-184.00
860,-232.00
861,-264.00
862,-296.00
863,-336.00
864,-368.00
865,-392.00
866,-416.00
867,-424.00
868,-432.00
869,-432.00
870,-424.00
871,-408.00
872,-392.00
873,-368.00
874,-328.00
875,-288.00
876,-256.00
877,-224.00
878,-184.00
879,-152.00
880,-120.00
881,-96.00
882,-96.00
883,-80.00
884,-88.00
885,-96.00
886,-112.00
887,-128.00
888,-160.00
889,-192.00
890,-232.00
891,-272.00
892,-304.00
893,-336.00
894,-368.00
895,-376.00
896,-392.00
897,-408.00
898,-416.00
899,-416.00
900,-392.00
901,-384.00
902,-368.00
903,-336.00
904,-296.00
905,-264.00
906,-232.00
907,-192.00
908,-160.00
909,-128.00
910,-112.00
911,-88.00
912,-80.00
913,-80.00
914,-88.00
915,-96.00
916,-112.00
917,-136.00
918,-168.00
919,-192.00
920,-232.00
921,-272.00
922,-304.00
923,-328.00
924,-360.00
925,-376.00
926,-384.00
927,-392.00
928,-392.00
929,-392.00
930,-376.00
931,-360.00
932,-328.00
933,-304.00
934,-272.00
935,-240.00
936,-200.00
937,-176.00
938,-136.00
939,-112.00
940,-96.00
941,-80.00
942,-80.00
943,-80.00
944,-80.00
945,-96.00
946,-112.00
947,-136.00
948,-176.00
949,-200.00
950,-240.00
951,-272.00
952,-296.00
953,-328.00
954,-352.00
955,-368.00
956,-368.00
957,-376.00
958,-368.00
959,-368.00
960,-352.00
961,-328.00
962,-304.00
963,-272.00
964,-240.00
965,-208.00
966,-176.00
967,-144.00
968,-120.00
969,-96.00
970,-80.00
971,-72.00
972,-72.00
973,-80.00
974,-88.00
975,-96.00
976,-120.00
977,-144.00
978,-176.00
979,-216.00
980,-248.00
981,-272.00
982,-296.00
983,-320.00
984,-344.00
985,-352.00
986,-368.00
987,-360.00
988,-352.00
989,-344.00
990,-320.00
991,-304.00
992,-272.00
993,-256.00
994,-216.00
995,-184.00
996,-152.00
997,-128.00
998,-96.00
999,-88.00
1000,-72.00
1001,-72.00
1002,-64.00
1003,-72.00
1004,-88.00
1005,-104.00
1006,-120.00
1007,-152.00
1008,-184.00
1009,-224.00
1010,-248.00
1011,-272.00
1012,-288.00
1013,-304.00
1014,-320.00
1015,-336.00
1016,-336.00
1017,-344.00
1018,-336.00
1019,-320.00
1020,-304.00
1021,-272.00
1022,-248.00
1023,-216.00
1024,-184.00
1025,-168.00
1026,-136.00
1027,-112.00
1028,-96.00
1029,-72.00
1030,-72.00
1031,-64.00
1032,-72.00
1033,-72.00
1034,-88.00
1035,-104.00
1036,-128.00
1037,-160.00
1038,-184.00
1039,-216.00
1040,-256.00
1041,-264.00
1042,-288.00
1043,-304.00
1044,-312.00
1045,-320.00
1046,-320.00
1047,-312.00
1048,-304.00
1049,-296.00
1050,-280.00
1051,-248.00
1052,-232.00
1053,-192.00
1054,-168.00
1055,-144.00
1056,-112.00
1057,-96.00
1058,-80.00
1059,-64.00
1060,-56.00
1061,-56.00
1062,-64.00
1063,-72.00
1064,-88.00
1065,-104.00
1066,-136.00
1067,-160.00
1068,-184.00
1069,-208.00
1070,-240.00
1071,-264.00
1072,-280.00
1073,-288.00
1074,-304.00
1075,-304.00
1076,-304.00
1077,-296.00
1078,-280.00
1079,-272.00
1080,-256.00
1081,-232.00
1082,-200.00
1083,-184.00
1084,-152.00
1085,-128.00
1086,-104.00
1087,-80.00
1088,-64.00
1089,-56.00
1090,-56.00
1091,-56.00
1092,-56.00
1093,-72.00
1094,-96.00
1095,-112.00
1096,-136.00
1097,-168.00
1098,-192.00
1099,-224.00
1100,-240.00
1101,-256.00
1102,-272.00
1103,-288.00
1104,-288.00
1105,-288.00
1106,-288.00
1107,-280.00
1108,-272.00
1109,-256.00
1110,-232.00
1111,-200.00
1112,-176.00
1113,-160.00
1114,-128.00
1115,-104.00
1116,-88.00
1117,-64.00
1118,-56.00
1119,-48.00
1120,-48.00
1121,-56.00
1122,-56.00
1123,-80.00
1124,-96.00
1125,-120.00
1126,-136.00
1127,-168.00
1128,-192.00
1129,-208.00
1130,-232.00
1131,-256.00
1132,-264.00
1133,-272.00
1134,-280.00
1135,-280.00
1136,-272.00
1137,-256.00
1138,-248.00
1139,-232.00
1140,-200.00
1141,-184.00
1142,-160.00
1143,-136.00
1144,-112.00
1145,-96.00
1146,-72.00
1147,-56.00
1148,-48.00
1149,-40.00
1150,-40.00
1151,-56.00
1152,-64.00
1153,-80.00
1154,-96.00
1155,-120.00
1156,-144.00
1157,-168.00
1158,-184.00
1159,-208.00
1160,-232.00
1161,-248.00
1162,-256.00
1163,-264.00
1164,-264.00
1165,-264.00
1166,-256.00
1167,-240.00
1168,-232.00
1169,-208.00
1170,-184.00
1171,-160.00
1172,-136.00
1173,-120.00
1174,-96.00
1175,-80.00
1176,-64.00
1177,-48.00
1178,-40.00
1179,-40.00
1180,-40.00
1181,-56.00
1182,-72.00
1183,-80.00
1184,-104.00
1185,-120.00
1186,-144.00
1187,-176.00
1188,-184.00
1189,-216.00
1190,-232.00
1191,-240.00
1192,-248.00
1193,-256.00
1194,-256.00
1195,-248.00
1196,-240.00
1197,-232.00
1198,-208.00
1199,-184.00
1200,-128.00
1201,-104.00
1202,-80.00
1203,-64.00
1204,-56.00
1205,-40.00
1206,-32.00
1207,-40.00
1208,-32.00
1209,-56.00
1210,-72.00
1211,-80.00
1212,-112.00
1213,-128.00
1214,-144.00
1215,-176.00
1216,-184.00
1217,-200.00
1218,-216.00
1219,-232.00
1220,-240.00
1221,-240.00
1222,-240.00
1223,-232.00
1224,-216.00
1225,-200.00
1226,-184.00
1227,-176.00
1228,-152.00
1229,-128.00
1230,-112.00
1231,-88.00
1232,-72.00
1233,-56.00
1234,-40.00
1235,-40.00
1236,-32.00
1237,-32.00
1238,-40.00
1239,-56.00
1240,-72.00
1241,-88.00
1242,-104.00
1243,-128.00
1244,-152.00
1245,-176.00
1246,-184.00
1247,-200.00
1248,-216.00
1249,-224.00
1250,-224.00
1251,-232.00
1252,-224.00
1253,-208.00
1254,-192.00
1255,-184.00
1256,-176.00
1257,-152.00
1258,-136.00
1259,-112.00
1260,-96.00
1261,-72.00
1262,-56.00
1263,-40.00
1264,-48.00
1265,-32.00
1266,-40.00
1267,-40.00
1268,-40.00
1269,-56.00
1270,-80.00
1271,-104.00
1272,-112.00
1273,-128.00
1274,-152.00
1275,-176.00
1276,-184.00
1277,-192.00
1278,-200.00
1279,-208.00
1280,-216.00
1281,-216.00
1282,-208.00
1283,-192.00
1284,-184.00
1285,-168.00
1286,-160.00
1287,-136.00
1288,-112.00
1289,-104.00
1290,-80.00
1291,-64.00
1292,-40.00
1293,-40.00
1294,-40.00
1295,-24.00
1296,-32.00
1297,-32.00
1298,-48.00
1299,-56.00
1300,-80.00
1301,-96.00
1302,-112.00
1303,-128.00
1304,-152.00
1305,-168.00
1306,-184.00
1307,-184.00
1308,-200.00
1309,-200.00
1310,-200.00
1311,-192.00
1312,-184.00
1313,-184.00
1314,-176.00
1315,-160.00
1316,-136.00
1317,-128.00
1318,-112.00
1319,-88.00
1320,-64.00
1321,-48.00
1322,-40.00
1323,-32.00
1324,-24.00
1325,-24.00
1326,-32.00
1327,-32.00
1328,-48.00
1329,-64.00
1330,-80.00
1331,-96.00
1332,-112.00
1333,-136.00
1334,-152.00
1335,-168.00
1336,-176.00
1337,-184.00
1338,-184.00
1339,-192.00
1340,-184.00
1341,-184.00
1342,-184.00
1343,-176.00
1344,-160.00
1345,-144.00
1346,-120.00
1347,-104.00
1348,-96.00
1349,-72.00
1350,-48.00
1351,-40.00
1352,-32.00
1353,-32.00
1354,-24.00
1355,-24.00
1356,-40.00
1357,-32.00
1358,-56.00
1359,-64.00
1360,-88.00
1361,-96.00
1362,-120.00
1363,-136.00
1364,-152.00
1365,-160.00
1366,-176.00
1367,-184.00
1368,-184.00
1369,-184.00
1370,-184.00
1371,-184.00
1372,-176.00
1373,-160.00
1374,-144.00
1375,-128.00
1376,-112.00
1377,-96.00
1378,-80.00
1379,-64.00
1380,-40.00
1381,-32.00
1382,-24.00
1383,-16.00
1384,-16.00
1385,-32.00
1386,-32.00
1387,-40.00
1388,-56.00
1389,-72.00
1390,-88.00
1391,-112.00
1392,-128.00
1393,-128.00
1394,-144.00
1395,-160.00
1396,-176.00
1397,-176.00
1398,-176.00
1399,-176.00
1400,-176.00
1401,-168.00
1402,-152.00
1403,-144.00
1404,-128.00
1405,-112.00
1406,-104.00
1407,-80.00
1408,-64.00
1409,-56.00
1410,-32.00
1411,-24.00
1412,-16.00
1413,-16.00
1414,-24.00
1415,-24.00
1416,-32.00
1417,-40.00
1418,-64.00
1419,-72.00
1420,-88.00
1421,-104.00
1422,-120.00
1423,-136.00
1424,-136.00
1425,-160.00
1426,480.00
1427,496.00
1428,504.00
1429,488.00
1430,472.00
1431,456.00
1432,440.00
1433,392.00
1434,352.00
1435,312.00
1436,272.00
1437,224.00
1438,192.00
1439,152.00
1440,120.00
1441,104.00
1442,88.00
1443,96.00
1444,96.00
1445,104.00
1446,136.00
1447,168.00
1448,200.00
1449,240.00
1450,288.00
1451,328.00
1452,368.00
1453,400.00
1454,432.00
1455,456.00
1456,472.00
1457,472.00
1458,472.00
1459,464.00
1460,456.00
1461,432.00
1462,392.00
1463,360.00
1464,320.00
1465,280.00
1466,240.00
1467,184.00
1468,168.00
1469,136.00
1470,104.00
1471,104.00
1472,88.00
1473,96.00
1474,96.00
1475,120.00
1476,136.00
1477,176.00
1478,208.00
1479,256.00
1480,288.00
1481,328.00
1482,360.00
1483,400.00
1484,432.00
1485,448.00
1486,456.00
1487,456.00
1488,456.00
1489,424.00
1490,424.00
1491,400.00
1492,360.00
1493,328.00
1494,272.00
1495,248.00
1496,216.00
1497,176.00
1498,136.00
1499,120.00
1500,96.00
1501,88.00
1502,88.00
1503,88.00
1504,104.00
1505,128.00
1506,152.00
1507,176.00
1508,224.00
1509,256.00
1510,288.00
1511,328.00
1512,360.00
1513,400.00
1514,416.00
1515,432.00
1516,440.00
1517,440.00
1518,440.00
1519,416.00
1520,392.00
1521,360.00
1522,336.00
1523,296.00
1524,264.00
1525,224.00
1526,184.00
1527,152.00
1528,120.00
1529,104.00
1530,88.00
1531,88.00
1532,88.00
1533,88.00
1534,104.00
1535,120.00
1536,160.00
1537,192.00
1538,216.00
1539,256.00
1540,296.00
1541,336.00
1542,360.00
1543,384.00
1544,400.00
1545,408.00
1546,416.00
1547,416.00
1548,400.00
1549,384.00
1550,360.00
1551,336.00
1552,304.00
1553,272.00
1554,216.00
1555,176.00
1556,168.00
1557,128.00
1558,112.00
1559,96.00
1560,88.00
1561,80.00
1562,88.00
1563,88.00
1564,104.00
1565,136.00
1566,168.00
1567,200.00
1568,224.00
1569,264.00
1570,296.00
1571,328.00
1572,352.00
1573,376.00
1574,392.00
1575,400.00
1576,400.00
1577,392.00
1578,376.00
1579,360.00
1580,336.00
1581,296.00
1582,272.00
1583,240.00
1584,200.00
1585,168.00
1586,144.00
1587,104.00
1588,96.00
1589,88.00
1590,80.00
1591,80.00
1592,88.00
1593,88.00
1594,112.00
1595,144.00
1596,168.00
1597,208.00
1598,224.00
1599,272.00
1600,296.00
1601,320.00
1602,344.00
1603,360.00
1604,376.00
1605,376.00
1606,360.00
1607,360.00
1608,352.00
1609,336.00
1610,312.00
1611,272.00
1612,248.00
1613,216.00
1614,176.00
1615,160.00
1616,120.00
1617,104.00
1618,88.00
1619,80.00
1620,80.00
1621,80.00
1622,88.00
1623,96.00
1624,120.00
1625,152.00
1626,168.00
1627,208.00
1628,240.00
1629,272.00
1630,296.00
1631,312.00
1632,336.00
1633,352.00
1634,360.00
1635,360.00
1636,360.00
1637,344.00
1638,336.00
1639,304.00
1640,280.00
1641,256.00
1642,224.00
1643,192.00
1644,160.00
1645,136.00
1646,104.00
1647,80.00
1648,80.00
1649,64.00
1650,72.00
1651,88.00
1652,88.00
1653,104.00
1654,128.00
1655,152.00
1656,184.00
1657,208.00
1658,240.00
1659,272.00
1660,280.00
1661,320.00
1662,336.00
1663,344.00
1664,336.00
1665,344.00
1666,344.00
1667,320.00
1668,296.00
1669,280.00
1670,248.00
1671,224.00
1672,192.00
1673,168.00
1674,136.00
1675,104.00
1676,88.00
1677,88.00
1678,64.00
1679,64.00
1680,72.00
1681,80.00
1682,80.00
1683,112.00
1684,128.00
1685,160.00
1686,176.00
1687,216.00
1688,240.00
1689,264.00
1690,280.00
1691,296.00
1692,320.00
1693,328.00
1694,328.00
1695,320.00
1696,312.00
1697,296.00
1698,280.00
1699,256.00
1700,224.00
1701,200.00
1702,176.00
1703,144.00
1704,120.00
1705,96.00
1706,88.00
1707,72.00
1708,64.00
1709,64.00
1710,64.00
1711,80.00
